"source_city_name","supplier","rating","city_code","city_name","country_code"
"Hakone","Adonis",1,"24108","Hakone","221"
"Hakone","HotelBeds",1,"JP5","Hakone","JP"
"Hakone","JacTravel",1,"3421","Hakone",
"Hakone","Miki",1,"22969","Hakone","JP"
"Hakone","Quantum",1,"19","Hakone","JP"
"Hakone","Travco",1,"HAKO","Hakone","JP"
"Hakone","GTA",1,"HAKO","Hakone","JP"
"Hakone","Travflex",1,"MA09040006","Hakone","MA05110053"
"Hakone","DOTW",1,"21404","HAKONE","171"
"Hakone","FIT",1,"1816","Hakone","96"
"Karuizawa","Adonis",1,"5262","Karuizawa","221"
"Karuizawa","Miki",1,"26726","Karuizawa","JP"
"Karuizawa","GTA",1,"ARUI","Karuizawa","JP"
"Karuizawa","Travflex",1,"MA02015910","Karuizawa","MA05110053"
"Karuizawa","DOTW",1,"116175","KARUIZAWA","171"
"Karuizawa","FIT",1,"7923","Karuizawa","96"
"Otaru","Adonis",1,"13584","Otaru","221"
"Otaru","HotelBeds",1,"OT1","Otaru","JP"
"Otaru","Miki",1,"17559","Otaru","JP"
"Otaru","Quantum",1,"27","Otaru","JP"
"Otaru","Travco",1,"OT1","Otaru","JP"
"Otaru","GTA",1,"OTAR","Otaru","JP"
"Otaru","Travflex",1,"MA09030179","Otaru","MA05110053"
"Otaru","DOTW",1,"116195","OTARU","171"
"Otaru","FIT",1,"11807","Otaru","96"
"Noboribetsu","Adonis",1,"2069","Noboribetsu","221"
"Noboribetsu","HotelBeds",1,"NB3","Noboribetsu","JP"
"Noboribetsu","Miki",1,"26737","Noboribetsu","JP"
"Noboribetsu","Travco",1,"NB3","Noboribetsu","JP"
"Noboribetsu","GTA",1,"NOBO","Noboribetsu","JP"
"Noboribetsu","Travflex",1,"MA06040025","Noboribetsu","MA05110053"
"Noboribetsu","DOTW",1,"117105","NOBORIBETSU","171"
"Noboribetsu","FIT",1,"13916","Noboribetsu","96"
"Chatan","Adonis",1,"7716","Chatan","221"
"Chatan","Miki",1,"27738","Chatan","JP"
"Chatan","FIT",1,"11881","Chatan","96"
"Onna","Adonis",1,"15099","Onna","221"
"Onna","Miki",1,"17558","Onna","JP"
"Onna","Travco",1,"ONN","Onna","JP"
"Onna","Travflex",1,"MA02015958","Onna","MA05110053"
"Onna","DOTW",1,"210808","ONNA","171"
"Onna","FIT",1,"7942","Onna","96"