[{
    "countryName": "Afghanistan",
    "phonePrefix": "+93",
    "ISOCode": "AF"
}, {
    "countryName": "Albania",
    "phonePrefix": "+355",
    "ISOCode": "AL"
}, {
    "countryName": "Algeria",
    "phonePrefix": "+213",
    "ISOCode": "DZ"
}, {
    "countryName": "AmericanSamoa",
    "phonePrefix": "+1-684",
    "ISOCode": "AS"
}, {
    "countryName": "Andorra",
    "phonePrefix": "+376",
    "ISOCode": "AD"
}, {
    "countryName": "Angola",
    "phonePrefix": "+244",
    "ISOCode": "AO"
}, {
    "countryName": "Anguilla",
    "phonePrefix": "+1-264",
    "ISOCode": "AI"
}, {
    "countryName": "Antarctica",
    "phonePrefix": "+672",
    "ISOCode": "AQ"
}, {
    "countryName": "AntiguaandBarbuda",
    "phonePrefix": "+1-268",
    "ISOCode": "AG"
}, {
    "countryName": "Argentina",
    "phonePrefix": "+54",
    "ISOCode": "AR"
}, {
    "countryName": "Armenia",
    "phonePrefix": "+374",
    "ISOCode": "AM"
}, {
    "countryName": "Aruba",
    "phonePrefix": "+297",
    "ISOCode": "AW"
}, {
    "countryName": "Australia",
    "phonePrefix": "+61",
    "ISOCode": "AU"
}, {
    "countryName": "Austria",
    "phonePrefix": "+43",
    "ISOCode": "AT"
}, {
    "countryName": "Azerbaijan",
    "phonePrefix": "+994",
    "ISOCode": "AZ"
}, {
    "countryName": "Bahamas",
    "phonePrefix": "+1-242",
    "ISOCode": "BS"
}, {
    "countryName": "Bahrain",
    "phonePrefix": "+973",
    "ISOCode": "BH"
}, {
    "countryName": "Bangladesh",
    "phonePrefix": "+880",
    "ISOCode": "BD"
}, {
    "countryName": "Barbados",
    "phonePrefix": "+1-246",
    "ISOCode": "BB"
}, {
    "countryName": "Belarus",
    "phonePrefix": "+375",
    "ISOCode": "BY"
}, {
    "countryName": "Belgium",
    "phonePrefix": "+32",
    "ISOCode": "BE"
}, {
    "countryName": "Belize",
    "phonePrefix": "+501",
    "ISOCode": "BZ"
}, {
    "countryName": "Benin",
    "phonePrefix": "+229",
    "ISOCode": "BJ"
}, {
    "countryName": "Bermuda",
    "phonePrefix": "+1-441",
    "ISOCode": "BM"
}, {
    "countryName": "Bhutan",
    "phonePrefix": "+975",
    "ISOCode": "BT"
}, {
    "countryName": "Bolivia",
    "phonePrefix": "+591",
    "ISOCode": "BO"
}, {
    "countryName": "BosniaandHerzegovina",
    "phonePrefix": "+387",
    "ISOCode": "BA"
}, {
    "countryName": "Botswana",
    "phonePrefix": "+267",
    "ISOCode": "BW"
}, {
    "countryName": "Brazil",
    "phonePrefix": "+55",
    "ISOCode": "BR"
}, {
    "countryName": "BritishIndianOceanTerritory",
    "phonePrefix": "+246",
    "ISOCode": "IO"
}, {
    "countryName": "BritishVirginIslands",
    "phonePrefix": "+1-284",
    "ISOCode": "VG"
}, {
    "countryName": "Brunei",
    "phonePrefix": "+673",
    "ISOCode": "BN"
}, {
    "countryName": "Bulgaria",
    "phonePrefix": "+359",
    "ISOCode": "BG"
}, {
    "countryName": "BurkinaFaso",
    "phonePrefix": "+226",
    "ISOCode": "BF"
}, {
    "countryName": "Burundi",
    "phonePrefix": "+257",
    "ISOCode": "BI"
}, {
    "countryName": "Cambodia",
    "phonePrefix": "+855",
    "ISOCode": "KH"
}, {
    "countryName": "Cameroon",
    "phonePrefix": "+237",
    "ISOCode": "CM"
}, {
    "countryName": "Canada",
    "phonePrefix": "+1",
    "ISOCode": "CA"
}, {
    "countryName": "CapeVerde",
    "phonePrefix": "+238",
    "ISOCode": "CV"
}, {
    "countryName": "CaymanIslands",
    "phonePrefix": "+1-345",
    "ISOCode": "KY"
}, {
    "countryName": "CentralAfricanRepublic",
    "phonePrefix": "+236",
    "ISOCode": "CF"
}, {
    "countryName": "Chad",
    "phonePrefix": "+235",
    "ISOCode": "TD"
}, {
    "countryName": "Chile",
    "phonePrefix": "+56",
    "ISOCode": "CL"
}, {
    "countryName": "China",
    "phonePrefix": "+86",
    "ISOCode": "CN"
}, {
    "countryName": "ChristmasIsland",
    "phonePrefix": "+61",
    "ISOCode": "CX"
}, {
    "countryName": "CocosIslands",
    "phonePrefix": "+61",
    "ISOCode": "CC"
}, {
    "countryName": "Colombia",
    "phonePrefix": "+57",
    "ISOCode": "CO"
}, {
    "countryName": "Comoros",
    "phonePrefix": "+269",
    "ISOCode": "KM"
}, {
    "countryName": "CookIslands",
    "phonePrefix": "+682",
    "ISOCode": "CK"
}, {
    "countryName": "CostaRica",
    "phonePrefix": "+506",
    "ISOCode": "CR"
}, {
    "countryName": "Croatia",
    "phonePrefix": "+385",
    "ISOCode": "HR"
}, {
    "countryName": "Cuba",
    "phonePrefix": "+53",
    "ISOCode": "CU"
}, {
    "countryName": "Curacao",
    "phonePrefix": "+599",
    "ISOCode": "CW"
}, {
    "countryName": "Cyprus",
    "phonePrefix": "+357",
    "ISOCode": "CY"
}, {
    "countryName": "CzechRepublic",
    "phonePrefix": "+420",
    "ISOCode": "CZ"
}, {
    "countryName": "DemocraticRepublicoftheCongo",
    "phonePrefix": "+243",
    "ISOCode": "CD"
}, {
    "countryName": "Denmark",
    "phonePrefix": "+45",
    "ISOCode": "DK"
}, {
    "countryName": "Djibouti",
    "phonePrefix": "+253",
    "ISOCode": "DJ"
}, {
    "countryName": "Dominica",
    "phonePrefix": "+1-767",
    "ISOCode": "DM"
}, {
    "countryName": "DominicanRepublic",
    "phonePrefix": "+1-809",
    "ISOCode": "1-829"
}, {
    "countryName": "EastTimor",
    "phonePrefix": "+670",
    "ISOCode": "TL"
}, {
    "countryName": "Ecuador",
    "phonePrefix": "+593",
    "ISOCode": "EC"
}, {
    "countryName": "Egypt",
    "phonePrefix": "+20",
    "ISOCode": "EG"
}, {
    "countryName": "ElSalvador",
    "phonePrefix": "+503",
    "ISOCode": "SV"
}, {
    "countryName": "EquatorialGuinea",
    "phonePrefix": "+240",
    "ISOCode": "GQ"
}, {
    "countryName": "Eritrea",
    "phonePrefix": "+291",
    "ISOCode": "ER"
}, {
    "countryName": "Estonia",
    "phonePrefix": "+372",
    "ISOCode": "EE"
}, {
    "countryName": "Ethiopia",
    "phonePrefix": "+251",
    "ISOCode": "ET"
}, {
    "countryName": "FalklandIslands",
    "phonePrefix": "+500",
    "ISOCode": "FK"
}, {
    "countryName": "FaroeIslands",
    "phonePrefix": "+298",
    "ISOCode": "FO"
}, {
    "countryName": "Fiji",
    "phonePrefix": "+679",
    "ISOCode": "FJ"
}, {
    "countryName": "Finland",
    "phonePrefix": "+358",
    "ISOCode": "FI"
}, {
    "countryName": "France",
    "phonePrefix": "+33",
    "ISOCode": "FR"
}, {
    "countryName": "FrenchPolynesia",
    "phonePrefix": "+689",
    "ISOCode": "PF"
}, {
    "countryName": "Gabon",
    "phonePrefix": "+241",
    "ISOCode": "GA"
}, {
    "countryName": "Gambia",
    "phonePrefix": "+220",
    "ISOCode": "GM"
}, {
    "countryName": "Georgia",
    "phonePrefix": "+995",
    "ISOCode": "GE"
}, {
    "countryName": "Germany",
    "phonePrefix": "+49",
    "ISOCode": "DE"
}, {
    "countryName": "Ghana",
    "phonePrefix": "+233",
    "ISOCode": "GH"
}, {
    "countryName": "Gibraltar",
    "phonePrefix": "+350",
    "ISOCode": "GI"
}, {
    "countryName": "Greece",
    "phonePrefix": "+30",
    "ISOCode": "GR"
}, {
    "countryName": "Greenland",
    "phonePrefix": "+299",
    "ISOCode": "GL"
}, {
    "countryName": "Grenada",
    "phonePrefix": "+1-473",
    "ISOCode": "GD"
}, {
    "countryName": "Guam",
    "phonePrefix": "+1-671",
    "ISOCode": "GU"
}, {
    "countryName": "Guatemala",
    "phonePrefix": "+502",
    "ISOCode": "GT"
}, {
    "countryName": "Guernsey",
    "phonePrefix": "+44-1481",
    "ISOCode": "GG"
}, {
    "countryName": "Guinea",
    "phonePrefix": "+224",
    "ISOCode": "GN"
}, {
    "countryName": "Guinea-Bissau",
    "phonePrefix": "+245",
    "ISOCode": "GW"
}, {
    "countryName": "Guyana",
    "phonePrefix": "+592",
    "ISOCode": "GY"
}, {
    "countryName": "Haiti",
    "phonePrefix": "+509",
    "ISOCode": "HT"
}, {
    "countryName": "Honduras",
    "phonePrefix": "+504",
    "ISOCode": "HN"
}, {
    "countryName": "HongKong",
    "phonePrefix": "+852",
    "ISOCode": "HK"
}, {
    "countryName": "Hungary",
    "phonePrefix": "+36",
    "ISOCode": "HU"
}, {
    "countryName": "Iceland",
    "phonePrefix": "+354",
    "ISOCode": "IS"
}, {
    "countryName": "India",
    "phonePrefix": "+91",
    "ISOCode": "IN"
}, {
    "countryName": "Indonesia",
    "phonePrefix": "+62",
    "ISOCode": "ID"
}, {
    "countryName": "Iran",
    "phonePrefix": "+98",
    "ISOCode": "IR"
}, {
    "countryName": "Iraq",
    "phonePrefix": "+964",
    "ISOCode": "IQ"
}, {
    "countryName": "Ireland",
    "phonePrefix": "+353",
    "ISOCode": "IE"
}, {
    "countryName": "IsleofMan",
    "phonePrefix": "+44-1624",
    "ISOCode": "IM"
}, {
    "countryName": "Israel",
    "phonePrefix": "+972",
    "ISOCode": "IL"
}, {
    "countryName": "Italy",
    "phonePrefix": "+39",
    "ISOCode": "IT"
}, {
    "countryName": "IvoryCoast",
    "phonePrefix": "+225",
    "ISOCode": "CI"
}, {
    "countryName": "Jamaica",
    "phonePrefix": "+1-876",
    "ISOCode": "JM"
}, {
    "countryName": "Japan",
    "phonePrefix": "+81",
    "ISOCode": "JP"
}, {
    "countryName": "Jersey",
    "phonePrefix": "+44-1534",
    "ISOCode": "JE"
}, {
    "countryName": "Jordan",
    "phonePrefix": "+962",
    "ISOCode": "JO"
}, {
    "countryName": "Kazakhstan",
    "phonePrefix": "+7",
    "ISOCode": "KZ"
}, {
    "countryName": "Kenya",
    "phonePrefix": "+254",
    "ISOCode": "KE"
}, {
    "countryName": "Kiribati",
    "phonePrefix": "+686",
    "ISOCode": "KI"
}, {
    "countryName": "Kosovo",
    "phonePrefix": "+383",
    "ISOCode": "XK"
}, {
    "countryName": "Kuwait",
    "phonePrefix": "+965",
    "ISOCode": "KW"
}, {
    "countryName": "Kyrgyzstan",
    "phonePrefix": "+996",
    "ISOCode": "KG"
}, {
    "countryName": "Laos",
    "phonePrefix": "+856",
    "ISOCode": "LA"
}, {
    "countryName": "Latvia",
    "phonePrefix": "+371",
    "ISOCode": "LV"
}, {
    "countryName": "Lebanon",
    "phonePrefix": "+961",
    "ISOCode": "LB"
}, {
    "countryName": "Lesotho",
    "phonePrefix": "+266",
    "ISOCode": "LS"
}, {
    "countryName": "Liberia",
    "phonePrefix": "+231",
    "ISOCode": "LR"
}, {
    "countryName": "Libya",
    "phonePrefix": "+218",
    "ISOCode": "LY"
}, {
    "countryName": "Liechtenstein",
    "phonePrefix": "+423",
    "ISOCode": "LI"
}, {
    "countryName": "Lithuania",
    "phonePrefix": "+370",
    "ISOCode": "LT"
}, {
    "countryName": "Luxembourg",
    "phonePrefix": "+352",
    "ISOCode": "LU"
}, {
    "countryName": "Macau",
    "phonePrefix": "+853",
    "ISOCode": "MO"
}, {
    "countryName": "Macedonia",
    "phonePrefix": "+389",
    "ISOCode": "MK"
}, {
    "countryName": "Madagascar",
    "phonePrefix": "+261",
    "ISOCode": "MG"
}, {
    "countryName": "Malawi",
    "phonePrefix": "+265",
    "ISOCode": "MW"
}, {
    "countryName": "Malaysia",
    "phonePrefix": "+60",
    "ISOCode": "MY"
}, {
    "countryName": "Maldives",
    "phonePrefix": "+960",
    "ISOCode": "MV"
}, {
    "countryName": "Mali",
    "phonePrefix": "+223",
    "ISOCode": "ML"
}, {
    "countryName": "Malta",
    "phonePrefix": "+356",
    "ISOCode": "MT"
}, {
    "countryName": "MarshallIslands",
    "phonePrefix": "+692",
    "ISOCode": "MH"
}, {
    "countryName": "Mauritania",
    "phonePrefix": "+222",
    "ISOCode": "MR"
}, {
    "countryName": "Mauritius",
    "phonePrefix": "+230",
    "ISOCode": "MU"
}, {
    "countryName": "Mayotte",
    "phonePrefix": "+262",
    "ISOCode": "YT"
}, {
    "countryName": "Mexico",
    "phonePrefix": "+52",
    "ISOCode": "MX"
}, {
    "countryName": "Micronesia",
    "phonePrefix": "+691",
    "ISOCode": "FM"
}, {
    "countryName": "Moldova",
    "phonePrefix": "+373",
    "ISOCode": "MD"
}, {
    "countryName": "Monaco",
    "phonePrefix": "+377",
    "ISOCode": "MC"
}, {
    "countryName": "Mongolia",
    "phonePrefix": "+976",
    "ISOCode": "MN"
}, {
    "countryName": "Montenegro",
    "phonePrefix": "+382",
    "ISOCode": "ME"
}, {
    "countryName": "Montserrat",
    "phonePrefix": "+1-664",
    "ISOCode": "MS"
}, {
    "countryName": "Morocco",
    "phonePrefix": "+212",
    "ISOCode": "MA"
}, {
    "countryName": "Mozambique",
    "phonePrefix": "+258",
    "ISOCode": "MZ"
}, {
    "countryName": "Myanmar",
    "phonePrefix": "+95",
    "ISOCode": "MM"
}, {
    "countryName": "Namibia",
    "phonePrefix": "+264",
    "ISOCode": "NA"
}, {
    "countryName": "Nauru",
    "phonePrefix": "+674",
    "ISOCode": "NR"
}, {
    "countryName": "Nepal",
    "phonePrefix": "+977",
    "ISOCode": "NP"
}, {
    "countryName": "Netherlands",
    "phonePrefix": "+31",
    "ISOCode": "NL"
}, {
    "countryName": "NetherlandsAntilles",
    "phonePrefix": "+599",
    "ISOCode": "AN"
}, {
    "countryName": "NewCaledonia",
    "phonePrefix": "+687",
    "ISOCode": "NC"
}, {
    "countryName": "NewZealand",
    "phonePrefix": "+64",
    "ISOCode": "NZ"
}, {
    "countryName": "Nicaragua",
    "phonePrefix": "+505",
    "ISOCode": "NI"
}, {
    "countryName": "Niger",
    "phonePrefix": "+227",
    "ISOCode": "NE"
}, {
    "countryName": "Nigeria",
    "phonePrefix": "+234",
    "ISOCode": "NG"
}, {
    "countryName": "Niue",
    "phonePrefix": "+683",
    "ISOCode": "NU"
}, {
    "countryName": "NorthKorea",
    "phonePrefix": "+850",
    "ISOCode": "KP"
}, {
    "countryName": "NorthernMarianaIslands",
    "phonePrefix": "+1-670",
    "ISOCode": "MP"
}, {
    "countryName": "Norway",
    "phonePrefix": "+47",
    "ISOCode": "NO"
}, {
    "countryName": "Oman",
    "phonePrefix": "+968",
    "ISOCode": "OM"
}, {
    "countryName": "Pakistan",
    "phonePrefix": "+92",
    "ISOCode": "PK"
}, {
    "countryName": "Palau",
    "phonePrefix": "+680",
    "ISOCode": "PW"
}, {
    "countryName": "Palestine",
    "phonePrefix": "+970",
    "ISOCode": "PS"
}, {
    "countryName": "Panama",
    "phonePrefix": "+507",
    "ISOCode": "PA"
}, {
    "countryName": "PapuaNewGuinea",
    "phonePrefix": "+675",
    "ISOCode": "PG"
}, {
    "countryName": "Paraguay",
    "phonePrefix": "+595",
    "ISOCode": "PY"
}, {
    "countryName": "Peru",
    "phonePrefix": "+51",
    "ISOCode": "PE"
}, {
    "countryName": "Philippines",
    "phonePrefix": "+63",
    "ISOCode": "PH"
}, {
    "countryName": "Pitcairn",
    "phonePrefix": "+64",
    "ISOCode": "PN"
}, {
    "countryName": "Poland",
    "phonePrefix": "+48",
    "ISOCode": "PL"
}, {
    "countryName": "Portugal",
    "phonePrefix": "+351",
    "ISOCode": "PT"
}, {
    "countryName": "PuertoRico",
    "phonePrefix": "+1-787",
    "ISOCode": "1-939"
}, {
    "countryName": "Qatar",
    "phonePrefix": "+974",
    "ISOCode": "QA"
}, {
    "countryName": "RepublicoftheCongo",
    "phonePrefix": "+242",
    "ISOCode": "CG"
}, {
    "countryName": "Reunion",
    "phonePrefix": "+262",
    "ISOCode": "RE"
}, {
    "countryName": "Romania",
    "phonePrefix": "+40",
    "ISOCode": "RO"
}, {
    "countryName": "Russia",
    "phonePrefix": "+7",
    "ISOCode": "RU"
}, {
    "countryName": "Rwanda",
    "phonePrefix": "+250",
    "ISOCode": "RW"
}, {
    "countryName": "SaintBarthelemy",
    "phonePrefix": "+590",
    "ISOCode": "BL"
}, {
    "countryName": "SaintHelena",
    "phonePrefix": "+290",
    "ISOCode": "SH"
}, {
    "countryName": "SaintKittsandNevis",
    "phonePrefix": "+1-869",
    "ISOCode": "KN"
}, {
    "countryName": "SaintLucia",
    "phonePrefix": "+1-758",
    "ISOCode": "LC"
}, {
    "countryName": "SaintMartin",
    "phonePrefix": "+590",
    "ISOCode": "MF"
}, {
    "countryName": "SaintPierreandMiquelon",
    "phonePrefix": "+508",
    "ISOCode": "PM"
}, {
    "countryName": "SaintVincentandtheGrenadines",
    "phonePrefix": "+1-784",
    "ISOCode": "VC"
}, {
    "countryName": "Samoa",
    "phonePrefix": "+685",
    "ISOCode": "WS"
}, {
    "countryName": "SanMarino",
    "phonePrefix": "+378",
    "ISOCode": "SM"
}, {
    "countryName": "SaoTomeandPrincipe",
    "phonePrefix": "+239",
    "ISOCode": "ST"
}, {
    "countryName": "SaudiArabia",
    "phonePrefix": "+966",
    "ISOCode": "SA"
}, {
    "countryName": "Senegal",
    "phonePrefix": "+221",
    "ISOCode": "SN"
}, {
    "countryName": "Serbia",
    "phonePrefix": "+381",
    "ISOCode": "RS"
}, {
    "countryName": "Seychelles",
    "phonePrefix": "+248",
    "ISOCode": "SC"
}, {
    "countryName": "SierraLeone",
    "phonePrefix": "+232",
    "ISOCode": "SL"
}, {
    "countryName": "Singapore",
    "phonePrefix": "+65",
    "ISOCode": "SG"
}, {
    "countryName": "SintMaarten",
    "phonePrefix": "+1-721",
    "ISOCode": "SX"
}, {
    "countryName": "Slovakia",
    "phonePrefix": "+421",
    "ISOCode": "SK"
}, {
    "countryName": "Slovenia",
    "phonePrefix": "+386",
    "ISOCode": "SI"
}, {
    "countryName": "SolomonIslands",
    "phonePrefix": "+677",
    "ISOCode": "SB"
}, {
    "countryName": "Somalia",
    "phonePrefix": "+252",
    "ISOCode": "SO"
}, {
    "countryName": "SouthAfrica",
    "phonePrefix": "+27",
    "ISOCode": "ZA"
}, {
    "countryName": "SouthKorea",
    "phonePrefix": "+82",
    "ISOCode": "KR"
}, {
    "countryName": "SouthSudan",
    "phonePrefix": "+211",
    "ISOCode": "SS"
}, {
    "countryName": "Spain",
    "phonePrefix": "+34",
    "ISOCode": "ES"
}, {
    "countryName": "SriLanka",
    "phonePrefix": "+94",
    "ISOCode": "LK"
}, {
    "countryName": "Sudan",
    "phonePrefix": "+249",
    "ISOCode": "SD"
}, {
    "countryName": "Suriname",
    "phonePrefix": "+597",
    "ISOCode": "SR"
}, {
    "countryName": "SvalbardandJanMayen",
    "phonePrefix": "+47",
    "ISOCode": "SJ"
}, {
    "countryName": "Swaziland",
    "phonePrefix": "+268",
    "ISOCode": "SZ"
}, {
    "countryName": "Sweden",
    "phonePrefix": "+46",
    "ISOCode": "SE"
}, {
    "countryName": "Switzerland",
    "phonePrefix": "+41",
    "ISOCode": "CH"
}, {
    "countryName": "Syria",
    "phonePrefix": "+963",
    "ISOCode": "SY"
}, {
    "countryName": "Taiwan",
    "phonePrefix": "+886",
    "ISOCode": "TW"
}, {
    "countryName": "Tajikistan",
    "phonePrefix": "+992",
    "ISOCode": "TJ"
}, {
    "countryName": "Tanzania",
    "phonePrefix": "+255",
    "ISOCode": "TZ"
}, {
    "countryName": "Thailand",
    "phonePrefix": "+66",
    "ISOCode": "TH"
}, {
    "countryName": "Togo",
    "phonePrefix": "+228",
    "ISOCode": "TG"
}, {
    "countryName": "Tokelau",
    "phonePrefix": "+690",
    "ISOCode": "TK"
}, {
    "countryName": "Tonga",
    "phonePrefix": "+676",
    "ISOCode": "TO"
}, {
    "countryName": "TrinidadandTobago",
    "phonePrefix": "+1-868",
    "ISOCode": "TT"
}, {
    "countryName": "Tunisia",
    "phonePrefix": "+216",
    "ISOCode": "TN"
}, {
    "countryName": "Turkey",
    "phonePrefix": "+90",
    "ISOCode": "TR"
}, {
    "countryName": "Turkmenistan",
    "phonePrefix": "+993",
    "ISOCode": "TM"
}, {
    "countryName": "TurksandCaicosIslands",
    "phonePrefix": "+1-649",
    "ISOCode": "TC"
}, {
    "countryName": "Tuvalu",
    "phonePrefix": "+688",
    "ISOCode": "TV"
}, {
    "countryName": "U.S.VirginIslands",
    "phonePrefix": "+1-340",
    "ISOCode": "VI"
}, {
    "countryName": "Uganda",
    "phonePrefix": "+256",
    "ISOCode": "UG"
}, {
    "countryName": "Ukraine",
    "phonePrefix": "+380",
    "ISOCode": "UA"
}, {
    "countryName": "UnitedArabEmirates",
    "phonePrefix": "+971",
    "ISOCode": "AE"
}, {
    "countryName": "UnitedKingdom",
    "phonePrefix": "+44",
    "ISOCode": "GB"
}, {
    "countryName": "UnitedStates",
    "phonePrefix": "+1",
    "ISOCode": "US"
}, {
    "countryName": "Uruguay",
    "phonePrefix": "+598",
    "ISOCode": "UY"
}, {
    "countryName": "Uzbekistan",
    "phonePrefix": "+998",
    "ISOCode": "UZ"
}, {
    "countryName": "Vanuatu",
    "phonePrefix": "+678",
    "ISOCode": "VU"
}, {
    "countryName": "Vatican",
    "phonePrefix": "+379",
    "ISOCode": "VA"
}, {
    "countryName": "Venezuela",
    "phonePrefix": "+58",
    "ISOCode": "VE"
}, {
    "countryName": "Vietnam",
    "phonePrefix": "+84",
    "ISOCode": "VN"
}, {
    "countryName": "WallisandFutuna",
    "phonePrefix": "+681",
    "ISOCode": "WF"
}, {
    "countryName": "WesternSahara",
    "phonePrefix": "+212",
    "ISOCode": "EH"
}, {
    "countryName": "Yemen",
    "phonePrefix": "+967",
    "ISOCode": "YE"
}, {
    "countryName": "Zambia",
    "phonePrefix": "+260",
    "ISOCode": "ZM"
}, {
    "countryName": "Zimbabwe",
    "phonePrefix": "+263",
    "ISOCode": "ZW"
}]