{
  "List": [
    {
      "iata": "AAZ",
      "name": "Quezaltenango Airport",
      "country": "GT",
      "city": "Quezaltenango",
      "state": "Quezaltenango",
      "latitude": 14.865599,
      "longitude": -91.501998
    },
    {
      "iata": "ADL",
      "name": "Adelaide International Airport",
      "country": "AU",
      "city": "Adelaide",
      "state": "South Australia",
      "latitude": -34.944998999999996,
      "longitude": 138.531005
    },
    {
      "iata": "AEP",
      "name": "Jorge Newbery Airpark",
      "country": "AR",
      "city": "Buenos Aires",
      "state": "Ciudad de Buenos Aires",
      "latitude": -34.5592,
      "longitude": -58.4156
    },
    {
      "iata": "AKL",
      "name": "Auckland International Airport",
      "country": "NZ",
      "city": "Auckland",
      "state": "Auckland",
      "latitude": -37.008098,
      "longitude": 174.79200699999998
    },
    {
      "iata": "AMI",
      "name": "Selaparang Airport",
      "country": "ID",
      "city": "Mataram",
      "state": "Nusa Tenggara Barat",
      "latitude": -8.560709,
      "longitude": 116.095001
    },
    {
      "iata": "AMZ",
      "name": "Ardmore Airport",
      "country": "NZ",
      "city": "Ardmore",
      "state": "Auckland",
      "latitude": -37.029700999999996,
      "longitude": 174.973007
    },
    {
      "iata": "AQB",
      "name": "Santa Cruz del Quiche Airport",
      "country": "GT",
      "city": "Santa Cruz des Quiche",
      "state": "Quiché",
      "latitude": 15.0122,
      "longitude": -91.150596
    },
    {
      "iata": "ARK",
      "name": "Arusha Airport",
      "country": "TZ",
      "city": "Arusha",
      "state": "Arusha",
      "latitude": -3.3677889999999997,
      "longitude": 36.6333
    },
    {
      "iata": "ASP",
      "name": "Alice Springs Airport",
      "country": "AU",
      "city": "Alice Springs",
      "state": "Northern Territory",
      "latitude": -23.806699,
      "longitude": 133.901992
    },
    {
      "iata": "ASV",
      "name": "Amboseli Airport",
      "country": "KE",
      "city": "Amboseli National Park",
      "state": "Rift Valley",
      "latitude": -2.64505,
      "longitude": 37.253101
    },
    {
      "iata": "AVV",
      "name": "Avalon Airport",
      "country": "AU",
      "city": "Avalon",
      "state": "Victoria",
      "latitude": -38.039398,
      "longitude": 144.46899399999998
    },
    {
      "iata": "AVX",
      "name": "Catalina Airport",
      "country": "US",
      "city": "Catalina Island",
      "state": "California",
      "latitude": 33.4049,
      "longitude": -118.416
    },
    {
      "iata": "BBM",
      "name": "Battambang Airport",
      "country": "KH",
      "city": "Battambang",
      "state": "Batdâmbâng",
      "latitude": 13.0956,
      "longitude": 103.22399899999999
    },
    {
      "iata": "BBS",
      "name": "Blackbushe Airport",
      "country": "GB",
      "city": "Blackbushe",
      "state": "Hampshire",
      "latitude": 51.323898,
      "longitude": -0.8474999999999999
    },
    {
      "iata": "BDB",
      "name": "Bundaberg Airport",
      "country": "AU",
      "city": "Bundaberg",
      "state": "Queensland",
      "latitude": -24.9039,
      "longitude": 152.319
    },
    {
      "iata": "BEO",
      "name": "Lake Macquarie Airport",
      "country": "AU",
      "city": "Lake Macquarie",
      "state": "New South Wales",
      "latitude": -33.0667,
      "longitude": 151.64799499999998
    },
    {
      "iata": "BHS",
      "name": "Bathurst Airport",
      "country": "AU",
      "city": "Bathurst",
      "state": "New South Wales",
      "latitude": -33.4094,
      "longitude": 149.651992
    },
    {
      "iata": "BKK",
      "name": "Suvarnabhumi Airport",
      "country": "TH",
      "city": "Bangkok",
      "state": "Samut Prakan",
      "latitude": 13.681099,
      "longitude": 100.747001
    },
    {
      "iata": "BMP",
      "name": "Brampton Island Airport",
      "country": "AU",
      "city": "Brampton Island",
      "state": "Queensland",
      "latitude": -20.8033,
      "longitude": 149.270004
    },
    {
      "iata": "BNE",
      "name": "Brisbane International Airport",
      "country": "AU",
      "city": "Brisbane",
      "state": "Queensland",
      "latitude": -27.384199,
      "longitude": 153.11700399999998
    },
    {
      "iata": "BNK",
      "name": "Ballina Byron Gateway Airport",
      "country": "AU",
      "city": "Ballina Byron Bay",
      "state": "New South Wales",
      "latitude": -28.8339,
      "longitude": 153.561996
    },
    {
      "iata": "BQH",
      "name": "London Biggin Hill Airport",
      "country": "GB",
      "city": "Biggin Hill",
      "state": "Bromley",
      "latitude": 51.330799,
      "longitude": 0.032499
    },
    {
      "iata": "BRT",
      "name": "Bathurst Island Airport",
      "country": "AU",
      "city": "Bathurst Island",
      "state": "Northern Territory",
      "latitude": -11.7692,
      "longitude": 130.619995
    },
    {
      "iata": "BUR",
      "name": "Bob Hope Airport",
      "country": "US",
      "city": "Burbank",
      "state": "California",
      "latitude": 34.200697999999996,
      "longitude": -118.35900099999999
    },
    {
      "iata": "BWU",
      "name": "Sydney Bankstown Airport",
      "country": "AU",
      "city": "Sydney",
      "state": "New South Wales",
      "latitude": -33.9244,
      "longitude": 150.98800599999998
    },
    {
      "iata": "CBG",
      "name": "Cambridge Airport",
      "country": "GB",
      "city": "Cambridge",
      "state": "Cambridgeshire",
      "latitude": 52.205000999999996,
      "longitude": 0.174999
    },
    {
      "iata": "CCB",
      "name": "Cable Airport",
      "country": "US",
      "city": "Upland",
      "state": "California",
      "latitude": 34.111598,
      "longitude": -117.688003
    },
    {
      "iata": "CDU",
      "name": "Camden Airport",
      "country": "AU",
      "city": "Camden",
      "state": "New South Wales",
      "latitude": -34.040298,
      "longitude": 150.686996
    },
    {
      "iata": "CFS",
      "name": "Coffs Harbour Airport",
      "country": "AU",
      "city": "Coff's Harbour",
      "state": "New South Wales",
      "latitude": -30.3206,
      "longitude": 153.115997
    },
    {
      "iata": "CNO",
      "name": "Chino Airport",
      "country": "US",
      "city": "Chino",
      "state": "California",
      "latitude": 33.9747,
      "longitude": -117.637001
    },
    {
      "iata": "CNS",
      "name": "Cairns International Airport",
      "country": "AU",
      "city": "Cairns",
      "state": "Queensland",
      "latitude": -16.885799,
      "longitude": 145.75500399999999
    },
    {
      "iata": "CNX",
      "name": "Chiang Mai International Airport",
      "country": "TH",
      "city": "Chiang Mai",
      "state": "Chiang Mai",
      "latitude": 18.766799,
      "longitude": 98.9626
    },
    {
      "iata": "CPT",
      "name": "Cape Town International Airport",
      "country": "ZA",
      "city": "Cape Town",
      "state": "Western Cape",
      "latitude": -33.964801,
      "longitude": 18.601699
    },
    {
      "iata": "CRK",
      "name": "Clark International Airport",
      "country": "PH",
      "city": "Angeles City",
      "state": "Pampanga",
      "latitude": 15.185998999999999,
      "longitude": 120.559997
    },
    {
      "iata": "CVJ",
      "name": "General Mariano Matamoros Airport",
      "country": "MX",
      "city": "Cuernavaca",
      "state": "Morelos",
      "latitude": 18.834799999999998,
      "longitude": -99.261299
    },
    {
      "iata": "CYR",
      "name": "Laguna de Los Patos International Airport",
      "country": "UY",
      "city": "Colonia",
      "state": "Colonia",
      "latitude": -34.456401,
      "longitude": -57.770599
    },
    {
      "iata": "DKI",
      "name": "Dunk Island Airport",
      "country": "AU",
      "city": "Dunk Island",
      "state": "Queensland",
      "latitude": -17.941699,
      "longitude": 146.139999
    },
    {
      "iata": "DMK",
      "name": "Don Mueang International Airport",
      "country": "TH",
      "city": "Bangkok",
      "state": "Bangkok Metropolis",
      "latitude": 13.912599,
      "longitude": 100.607002
    },
    {
      "iata": "DPS",
      "name": "Ngurah Rai (Bali) International Airport",
      "country": "ID",
      "city": "Denpasar",
      "state": "Bali",
      "latitude": -8.748168999999999,
      "longitude": 115.16699899999999
    },
    {
      "iata": "DRW",
      "name": "Darwin International Airport",
      "country": "AU",
      "city": "Darwin",
      "state": "Northern Territory",
      "latitude": -12.414698999999999,
      "longitude": 130.876998
    },
    {
      "iata": "EMT",
      "name": "El Monte Airport",
      "country": "US",
      "city": "El Monte",
      "state": "California",
      "latitude": 34.086101,
      "longitude": -118.03500299999999
    },
    {
      "iata": "ESH",
      "name": "Shoreham Airport",
      "country": "GB",
      "city": "Shoreham By Sea",
      "state": "West Sussex",
      "latitude": 50.835601,
      "longitude": -0.297221
    },
    {
      "iata": "EZE",
      "name": "Ministro Pistarini International Airport",
      "country": "AR",
      "city": "Buenos Aires",
      "state": "Buenos Aires",
      "latitude": -34.822199999999995,
      "longitude": -58.535799999999995
    },
    {
      "iata": "FAB",
      "name": "Farnborough Airport",
      "country": "GB",
      "city": "Farnborough",
      "state": "Hampshire",
      "latitude": 51.275797999999995,
      "longitude": -0.7763319999999999
    },
    {
      "iata": "FON",
      "name": "Arenal Airport",
      "country": "CR",
      "city": "La Fortuna/San Carlos",
      "state": "Alajuela",
      "latitude": 10.477998999999999,
      "longitude": -84.634498
    },
    {
      "iata": "FUL",
      "name": "Fullerton Municipal Airport",
      "country": "US",
      "city": "Fullerton",
      "state": "California",
      "latitude": 33.872001,
      "longitude": -117.980003
    },
    {
      "iata": "GEX",
      "name": "Geelong Airport",
      "country": "AU",
      "city": "Geelong",
      "state": "Victoria",
      "latitude": -38.224998,
      "longitude": 144.332992
    },
    {
      "iata": "GFN",
      "name": "Grafton Airport",
      "country": "AU",
      "city": "Grafton",
      "state": "New South Wales",
      "latitude": -29.759399,
      "longitude": 153.029998
    },
    {
      "iata": "GUA",
      "name": "La Aurora Airport",
      "country": "GT",
      "city": "Guatemala City",
      "state": "Guatemala",
      "latitude": 14.583298999999998,
      "longitude": -90.527496
    },
    {
      "iata": "HHR",
      "name": "Jack Northrop Field Hawthorne Municipal Airport",
      "country": "US",
      "city": "Hawthorne",
      "state": "California",
      "latitude": 33.922798,
      "longitude": -118.334999
    },
    {
      "iata": "HIS",
      "name": "Hayman Island Heliport",
      "country": "AU",
      "city": "Hayman Island",
      "state": "Queensland",
      "latitude": -20.0599,
      "longitude": 148.8834
    },
    {
      "iata": "HKG",
      "name": "Chek Lap Kok International Airport",
      "country": "HK",
      "city": "Hong Kong",
      "state": "Islands",
      "latitude": 22.308899999999998,
      "longitude": 113.91499999999999
    },
    {
      "iata": "HLT",
      "name": "Hamilton Airport",
      "country": "AU",
      "city": "Hamilton",
      "state": "Victoria",
      "latitude": -37.648899,
      "longitude": 142.065002
    },
    {
      "iata": "HLZ",
      "name": "Hamilton International Airport",
      "country": "NZ",
      "city": "Hamilton",
      "state": "Waikato",
      "latitude": -37.866699,
      "longitude": 175.332
    },
    {
      "iata": "HSM",
      "name": "Horsham Airport",
      "country": "AU",
      "city": "Horsham",
      "state": "Victoria",
      "latitude": -36.6697,
      "longitude": 142.173004
    },
    {
      "iata": "HTI",
      "name": "Hamilton Island Airport",
      "country": "AU",
      "city": "Hamilton Island",
      "state": "Queensland",
      "latitude": -20.3581,
      "longitude": 148.95199499999998
    },
    {
      "iata": "HVB",
      "name": "Hervey Bay Airport",
      "country": "AU",
      "city": "Hervey Bay",
      "state": "Queensland",
      "latitude": -25.318899,
      "longitude": 152.88000399999999
    },
    {
      "iata": "IFL",
      "name": "Innisfail Airport",
      "country": "AU",
      "city": "Innisfail",
      "state": "Queensland",
      "latitude": -17.5594,
      "longitude": 146.011993
    },
    {
      "iata": "ILU",
      "name": "Kilaguni Airport",
      "country": "KE",
      "city": "Kilaguni",
      "state": "Coast",
      "latitude": -2.910609,
      "longitude": 38.0652
    },
    {
      "iata": "JHQ",
      "name": "Shute Harbour Airport",
      "country": "AU",
      "city": "Shute Harbour",
      "state": "Queensland",
      "latitude": -20.277221,
      "longitude": 148.75555599999998
    },
    {
      "iata": "JRO",
      "name": "Kilimanjaro International Airport",
      "country": "TZ",
      "city": "Kilimanjaro",
      "state": "Kilimanjaro",
      "latitude": -3.4294089999999997,
      "longitude": 37.074501
    },
    {
      "iata": "KRH",
      "name": "Redhill Aerodrome",
      "country": "GB",
      "city": "Redhill",
      "state": "Surrey",
      "latitude": 51.2136,
      "longitude": -0.13861099999999998
    },
    {
      "iata": "LAX",
      "name": "Los Angeles International Airport",
      "country": "US",
      "city": "Los Angeles",
      "state": "California",
      "latitude": 33.942501,
      "longitude": -118.407997
    },
    {
      "iata": "LCY",
      "name": "London City Airport",
      "country": "GB",
      "city": "London",
      "state": "Newham",
      "latitude": 51.505299,
      "longitude": 0.055278
    },
    {
      "iata": "LGB",
      "name": "Long Beach /Daugherty Field/ Airport",
      "country": "US",
      "city": "Long Beach",
      "state": "California",
      "latitude": 33.817699,
      "longitude": -118.152
    },
    {
      "iata": "LGW",
      "name": "London Gatwick Airport",
      "country": "GB",
      "city": "London",
      "state": "West Sussex",
      "latitude": 51.148101,
      "longitude": -0.190277
    },
    {
      "iata": "LHR",
      "name": "London Heathrow Airport",
      "country": "GB",
      "city": "London",
      "state": "Hillingdon",
      "latitude": 51.4706,
      "longitude": -0.461941
    },
    {
      "iata": "LOP",
      "name": "Lombok International Airport",
      "country": "ID",
      "city": "Praya",
      "state": "Nusa Tenggara Barat",
      "latitude": -8.757322,
      "longitude": 116.276675
    },
    {
      "iata": "LPG",
      "name": "La Plata Airport",
      "country": "AR",
      "city": "La Plata",
      "state": "Buenos Aires",
      "latitude": -34.9722,
      "longitude": -57.8947
    },
    {
      "iata": "LPT",
      "name": "Lampang Airport",
      "country": "TH",
      "city": "Lampang",
      "state": "Lampang",
      "latitude": 18.270899999999997,
      "longitude": 99.50420299999999
    },
    {
      "iata": "LSY",
      "name": "Lismore Airport",
      "country": "AU",
      "city": "Lismore",
      "state": "New South Wales",
      "latitude": -28.830299,
      "longitude": 153.259994
    },
    {
      "iata": "LTN",
      "name": "London Luton Airport",
      "country": "GB",
      "city": "London",
      "state": "Luton",
      "latitude": 51.874697999999995,
      "longitude": -0.36833299999999997
    },
    {
      "iata": "LYM",
      "name": "Lympne Airport",
      "country": "GB",
      "city": "Lympne",
      "state": "Kent",
      "latitude": 51.08,
      "longitude": 1.013
    },
    {
      "iata": "LYX",
      "name": "Lydd Airport",
      "country": "GB",
      "city": "Lydd",
      "state": "Kent",
      "latitude": 50.9561,
      "longitude": 0.939167
    },
    {
      "iata": "MBH",
      "name": "Maryborough Airport",
      "country": "AU",
      "city": "Maryborough",
      "state": "Queensland",
      "latitude": -25.513299,
      "longitude": 152.71499599999999
    },
    {
      "iata": "MBW",
      "name": "Melbourne Moorabbin Airport",
      "country": "AU",
      "city": "Melbourne",
      "state": "Victoria",
      "latitude": -37.975798999999995,
      "longitude": 145.102005
    },
    {
      "iata": "MCY",
      "name": "Sunshine Coast Airport",
      "country": "AU",
      "city": "Maroochydore",
      "state": "Queensland",
      "latitude": -26.603299999999997,
      "longitude": 153.091003
    },
    {
      "iata": "MEB",
      "name": "Melbourne Essendon Airport",
      "country": "AU",
      "city": "Melbourne",
      "state": "Victoria",
      "latitude": -37.728099,
      "longitude": 144.901992
    },
    {
      "iata": "MEL",
      "name": "Melbourne International Airport",
      "country": "AU",
      "city": "Melbourne",
      "state": "Victoria",
      "latitude": -37.673300999999995,
      "longitude": 144.84300199999998
    },
    {
      "iata": "MEX",
      "name": "Licenciado Benito Juarez International Airport",
      "country": "MX",
      "city": "Mexico City",
      "state": "Distrito Federal",
      "latitude": 19.4363,
      "longitude": -99.072098
    },
    {
      "iata": "MFM",
      "name": "Macau International Airport",
      "country": "MO",
      "city": "Macau",
      "state": "Macau",
      "latitude": 22.149599,
      "longitude": 113.592002
    },
    {
      "iata": "MNL",
      "name": "Ninoy Aquino International Airport",
      "country": "PH",
      "city": "Manila",
      "state": "Paranaque",
      "latitude": 14.5086,
      "longitude": 121.01999699999999
    },
    {
      "iata": "NAY",
      "name": "Beijing Nanyuan Airport",
      "country": "CN",
      "city": "Beijing",
      "state": "Beijing",
      "latitude": 39.782798,
      "longitude": 116.38799999999999
    },
    {
      "iata": "NHT",
      "name": "RAF Northolt",
      "country": "GB",
      "city": "Northolt",
      "state": "Hillingdon",
      "latitude": 51.553000999999995,
      "longitude": -0.418166
    },
    {
      "iata": "NTD",
      "name": "Point Mugu Naval Air Station (Naval Base Ventura Co)",
      "country": "US",
      "city": "Point Mugu",
      "state": "California",
      "latitude": 34.1203,
      "longitude": -119.12100199999999
    },
    {
      "iata": "ODH",
      "name": "RAF Odiham",
      "country": "GB",
      "city": "Odiham",
      "state": "Hampshire",
      "latitude": 51.2341,
      "longitude": -0.9428249999999999
    },
    {
      "iata": "ONT",
      "name": "Ontario International Airport",
      "country": "US",
      "city": "Ontario",
      "state": "California",
      "latitude": 34.055999,
      "longitude": -117.60099699999999
    },
    {
      "iata": "OOL",
      "name": "Gold Coast Airport",
      "country": "AU",
      "city": "Coolangatta",
      "state": "New South Wales",
      "latitude": -28.164399999999997,
      "longitude": 153.50500399999999
    },
    {
      "iata": "OXF",
      "name": "Oxford (Kidlington) Airport",
      "country": "GB",
      "city": "Oxford",
      "state": "Oxfordshire",
      "latitude": 51.836898,
      "longitude": -1.3199999999999998
    },
    {
      "iata": "OXR",
      "name": "Oxnard Airport",
      "country": "US",
      "city": "Oxnard",
      "state": "California",
      "latitude": 34.200801,
      "longitude": -119.207
    },
    {
      "iata": "PBC",
      "name": "Hermanos Serdán International Airport",
      "country": "MX",
      "city": "Puebla",
      "state": "Puebla",
      "latitude": 19.158099999999997,
      "longitude": -98.371398
    },
    {
      "iata": "PCA",
      "name": "Ingeniero Juan Guillermo Villasana Airport",
      "country": "MX",
      "city": "Pachuca",
      "state": "Hidalgo",
      "latitude": 20.0774,
      "longitude": -98.782501
    },
    {
      "iata": "PEK",
      "name": "Beijing Capital International Airport",
      "country": "CN",
      "city": "Beijing",
      "state": "Beijing",
      "latitude": 40.080101,
      "longitude": 116.584999
    },
    {
      "iata": "PMD",
      "name": "Palmdale Regional/USAF Plant 42 Airport",
      "country": "US",
      "city": "Palmdale",
      "state": "California",
      "latitude": 34.629398,
      "longitude": -118.084999
    },
    {
      "iata": "POC",
      "name": "Brackett Field",
      "country": "US",
      "city": "La Verne",
      "state": "California",
      "latitude": 34.091598,
      "longitude": -117.78199699999999
    },
    {
      "iata": "PPP",
      "name": "Proserpine Whitsunday Coast Airport",
      "country": "AU",
      "city": "Prosserpine",
      "state": "Queensland",
      "latitude": -20.494999999999997,
      "longitude": 148.552001
    },
    {
      "iata": "PYY",
      "name": "Mae Hong Son Airport",
      "country": "TH",
      "city": "Pai",
      "state": "Mae Hong Son",
      "latitude": 19.371999,
      "longitude": 98.436996
    },
    {
      "iata": "QFO",
      "name": "Duxford Airport",
      "country": "GB",
      "city": "Duxford",
      "state": "Cambridgeshire",
      "latitude": 52.090801,
      "longitude": 0.131944
    },
    {
      "iata": "QLA",
      "name": "Lasham Airport",
      "country": "GB",
      "city": "Lasham",
      "state": "Hampshire",
      "latitude": 51.187197999999995,
      "longitude": -1.033499
    },
    {
      "iata": "RAL",
      "name": "Riverside Municipal Airport",
      "country": "US",
      "city": "Riverside",
      "state": "California",
      "latitude": 33.9519,
      "longitude": -117.444999
    },
    {
      "iata": "RCS",
      "name": "Rochester Airport",
      "country": "GB",
      "city": "Rochester",
      "state": "Medway",
      "latitude": 51.351898,
      "longitude": 0.503332
    },
    {
      "iata": "REP",
      "name": "Siem Reap International Airport",
      "country": "KH",
      "city": "Siem-reap",
      "state": "Siemréab",
      "latitude": 13.410699,
      "longitude": 103.813003
    },
    {
      "iata": "RIR",
      "name": "Flabob Airport",
      "country": "US",
      "city": "Riverside",
      "state": "California",
      "latitude": 33.9897,
      "longitude": -117.411003
    },
    {
      "iata": "SEN",
      "name": "Southend Airport",
      "country": "GB",
      "city": "Southend",
      "state": "Southend-on-Sea",
      "latitude": 51.571399,
      "longitude": 0.6955549999999999
    },
    {
      "iata": "SFS",
      "name": "Subic Bay International Airport",
      "country": "PH",
      "city": "Olongapo City",
      "state": "Bataan",
      "latitude": 14.7944,
      "longitude": 120.271003
    },
    {
      "iata": "SJO",
      "name": "Juan Santamaria International Airport",
      "country": "CR",
      "city": "San Jose",
      "state": "Alajuela",
      "latitude": 9.99386,
      "longitude": -84.208801
    },
    {
      "iata": "SLI",
      "name": "Los Alamitos Army Air Field",
      "country": "ZM",
      "city": "Solwesi",
      "state": "North-Western",
      "latitude": 33.79,
      "longitude": -118.052002
    },
    {
      "iata": "SMO",
      "name": "Santa Monica Municipal Airport",
      "country": "US",
      "city": "Santa Monica",
      "state": "California",
      "latitude": 34.0158,
      "longitude": -118.45099599999999
    },
    {
      "iata": "SNA",
      "name": "John Wayne Airport-Orange County Airport",
      "country": "US",
      "city": "Santa Ana",
      "state": "California",
      "latitude": 33.675701,
      "longitude": -117.86799599999999
    },
    {
      "iata": "STN",
      "name": "London Stansted Airport",
      "country": "GB",
      "city": "London",
      "state": "Essex",
      "latitude": 51.884997999999996,
      "longitude": 0.23499899999999999
    },
    {
      "iata": "SYD",
      "name": "Sydney Kingsford Smith International Airport",
      "country": "AU",
      "city": "Sydney",
      "state": "New South Wales",
      "latitude": -33.946098,
      "longitude": 151.177001
    },
    {
      "iata": "SYQ",
      "name": "Tobias Bolanos International Airport",
      "country": "CR",
      "city": "San Jose",
      "state": "Heredia",
      "latitude": 9.957049999999999,
      "longitude": -84.13980099999999
    },
    {
      "iata": "SZX",
      "name": "Shenzhen Bao'an International Airport",
      "country": "CN",
      "city": "Shenzhen",
      "state": "Guangdong",
      "latitude": 22.639298999999998,
      "longitude": 113.810997
    },
    {
      "iata": "TLC",
      "name": "Licenciado Adolfo Lopez Mateos International Airport",
      "country": "MX",
      "city": "Toluca",
      "state": "México",
      "latitude": 19.337099,
      "longitude": -99.566001
    },
    {
      "iata": "TOA",
      "name": "Zamperini Field",
      "country": "US",
      "city": "Torrance",
      "state": "California",
      "latitude": 33.803398,
      "longitude": -118.339996
    },
    {
      "iata": "TTQ",
      "name": "Aerotortuguero Airport",
      "country": "CR",
      "city": "Roxana",
      "state": "Limón",
      "latitude": 10.42,
      "longitude": -83.6095
    },
    {
      "iata": "VNY",
      "name": "Van Nuys Airport",
      "country": "US",
      "city": "Van Nuys",
      "state": "California",
      "latitude": 34.2098,
      "longitude": -118.48999699999999
    },
    {
      "iata": "WHP",
      "name": "Whiteman Airport",
      "country": "US",
      "city": "Los Angeles",
      "state": "California",
      "latitude": 34.259299999999996,
      "longitude": -118.41300199999999
    },
    {
      "iata": "WJF",
      "name": "General WM J Fox Airfield",
      "country": "US",
      "city": "Lancaster",
      "state": "California",
      "latitude": 34.741099999999996,
      "longitude": -118.21900099999999
    },
    {
      "iata": "WOL",
      "name": "Wollongong Airport",
      "country": "AU",
      "city": "Wollongong",
      "state": "New South Wales",
      "latitude": -34.561099999999996,
      "longitude": 150.78900099999998
    },
    {
      "iata": "WSY",
      "name": "Whitsunday Island Airport",
      "country": "AU",
      "city": "Airlie Beach",
      "state": "Queensland",
      "latitude": -20.27611,
      "longitude": 148.755
    },
    {
      "iata": "XQP",
      "name": "Quepos Managua Airport",
      "country": "CR",
      "city": "Quepos",
      "state": "Puntarenas",
      "latitude": 9.443159999999999,
      "longitude": -84.129798
    },
    {
      "iata": "ZUH",
      "name": "Zhuhai Jinwan Airport",
      "country": "CN",
      "city": "Zhuhai",
      "state": "Guangdong",
      "latitude": 22.006399,
      "longitude": 113.375999
    }
  ]
}